33	1	91	1	1
37	1	103	2	1
41	1	115	3	1
45	1	127	4	1
51	1	145	5	1
55	1	157	6	1
63	1	169	7	1
59	1	177	8	1
35	1	97	9	1
39	1	109	10	1
43	1	121	11	1
47	1	133	12	1
49	1	139	13	1
53	1	151	14	1
57	1	163	15	1
62	1	175	16	1
32	1	92	17	1
36	1	104	18	1
40	1	116	19	1
46	1	134	20	1
50	1	146	21	1
54	1	158	22	1
61	1	170	23	1
58	1	171	24	1
34	1	98	25	1
38	1	110	26	1
42	1	122	27	1
44	1	128	28	1
48	1	140	29	1
52	1	152	30	1
56	1	164	31	1
60	1	176	32	1
28	0	101	33	1
24	0	113	34	1
20	0	125	35	1
18	0	131	36	1
14	0	143	37	1
10	0	155	38	1
6	0	167	39	1
2	0	179	40	1
30	0	95	41	1
26	0	107	42	1
22	0	119	43	1
16	0	137	44	1
12	0	149	45	1
8	0	161	46	1
4	0	173	47	1
1	0	178	48	1
29	0	102	49	1
25	0	114	50	1
21	0	126	51	1
17	0	138	52	1
15	0	144	53	1
11	0	156	54	1
7	0	168	55	1
3	0	180	56	1
31	0	96	57	1
27	0	108	58	1
23	0	120	59	1
19	0	132	60	1
13	0	150	61	1
9	0	162	62	1
5	0	174	63	1
0	0	172	64	1
30	1	85	1	2
28	1	79	2	2
31	1	86	3	2
29	1	80	4	2
35	0	83	5	2
33	0	89	6	2
34	0	84	7	2
32	0	90	8	2
26	1	73	9	2
24	1	67	10	2
27	1	74	11	2
25	1	68	12	2
39	0	71	13	2
37	0	77	14	2
38	0	72	15	2
36	0	78	16	2
22	1	61	17	2
20	1	55	18	2
23	1	62	19	2
21	1	56	20	2
43	0	59	21	2
41	0	65	22	2
42	0	60	23	2
40	0	66	24	2
18	1	49	25	2
16	1	43	26	2
17	1	44	27	2
19	1	50	28	2
45	0	53	29	2
47	0	47	30	2
46	0	48	31	2
44	0	54	32	2
12	1	31	33	2
14	1	37	34	2
13	1	32	35	2
15	1	38	36	2
49	0	41	37	2
51	0	35	38	2
48	0	42	39	2
50	0	36	40	2
8	1	19	41	2
10	1	25	42	2
9	1	20	43	2
11	1	26	44	2
53	0	29	45	2
55	0	23	46	2
52	0	30	47	2
54	0	24	48	2
0	1	7	49	2
6	1	13	50	2
2	1	8	51	2
7	1	14	52	2
57	0	17	53	2
59	0	11	54	2
56	0	18	55	2
58	0	12	56	2
4	1	3	57	2
1	1	1	58	2
5	1	9	59	2
3	1	2	60	2
61	0	5	61	2
62	0	4	62	2
60	0	6	63	2
63	0	10	64	2
